{
  "title": "Book",
  "type": "object",
  "properties": {
    "id": {
      "type": "string",
      "example": "507f1f77bcf86cd799439011",
      "minLength": 24,
      "maxLength": 24
    },
    "relatedBooks": {
      "type": "array",
      "items": {
        "$ref": ""
      }
    },
    "characters": {
      "type": "array",
      "items": {
        "$ref": "./charackter.v1.json"
      }
    },
    "releaseDate": {
      "type": "integer",
      "example": 2011,
      "minimum": 1970
    },
    "pageCount": {
      "type": "integer",
      "example": 464
    },
    "thumbnail": {
      "type": "string",
      "format": "uri",
      "example": "https://books.google.hu/books/content?id=_zSzAwAAQBAJ&printsec=frontcover&img=1"
    },
    "description": {
      "type": "string",
      "example": "The Hunger Games"
    },
    "author": {
      "type": "string",
      "example": "Suzanna Collins"
    },
    "title": {
      "type": "string",
      "example": "The Hunger Games"
    },
    "ISBN": {
      "type": "string",
      "example": 9781407133171,
      "pattern": "^(?:ISBN(?:-1[03])?:? )?(?=[0-9X]{10}$|(?=(?:[0-9]+[- ]){3})[- 0-9X]{13}$|97[89][0-9]{10}$|(?=(?:[0-9]+[- ]){4})[- 0-9]{17}$)(?:97[89][- ]?)?[0-9]{1,5}[- ]?[0-9]+[- ]?[0-9]+[- ]?[0-9X]$"
    }
  },
  "required": [
    "id",
    "title",
    "ISBN"
  ],
  "description": "A book entity"
}